simulation/qsim/Processador.msim.vcd
$comment
	File created using the following command:
		vcd file Processador.msim.vcd -direction
$end
$date
	Tue Nov 30 11:54:52 2021
$end
$version
	ModelSim Version 2020.1
$end
$timescale
	1ps
$end

$scope module divisorFreq_1kHz_vlg_vec_tst $end
$var reg 1 ! f_in $end
$var wire 1 " f_out $end

$scope module i1 $end
$var wire 1 # gnd $end
$var wire 1 $ vcc $end
$var wire 1 % unknown $end
$var tri1 1 & devclrn $end
$var tri1 1 ' devpor $end
$var tri1 1 ( devoe $end
$var wire 1 ) f_out~output_o $end
$var wire 1 * f_in~input_o $end
$var wire 1 + f_in~inputclkctrl_outclk $end
$var wire 1 , count[0]~26_combout $end
$var wire 1 - count[0]~27 $end
$var wire 1 . count[1]~28_combout $end
$var wire 1 / count[1]~29 $end
$var wire 1 0 count[2]~30_combout $end
$var wire 1 1 count[2]~31 $end
$var wire 1 2 count[3]~32_combout $end
$var wire 1 3 count[3]~33 $end
$var wire 1 4 count[4]~34_combout $end
$var wire 1 5 count[4]~35 $end
$var wire 1 6 count[5]~36_combout $end
$var wire 1 7 count[5]~37 $end
$var wire 1 8 count[6]~38_combout $end
$var wire 1 9 count[6]~39 $end
$var wire 1 : count[7]~40_combout $end
$var wire 1 ; count[7]~41 $end
$var wire 1 < count[8]~42_combout $end
$var wire 1 = count[8]~43 $end
$var wire 1 > count[9]~44_combout $end
$var wire 1 ? count[9]~45 $end
$var wire 1 @ count[10]~46_combout $end
$var wire 1 A count[10]~47 $end
$var wire 1 B count[11]~48_combout $end
$var wire 1 C count[11]~49 $end
$var wire 1 D count[12]~50_combout $end
$var wire 1 E count[12]~51 $end
$var wire 1 F count[13]~52_combout $end
$var wire 1 G count[13]~53 $end
$var wire 1 H count[14]~54_combout $end
$var wire 1 I count[14]~55 $end
$var wire 1 J count[15]~56_combout $end
$var wire 1 K count[15]~57 $end
$var wire 1 L count[16]~58_combout $end
$var wire 1 M count[16]~59 $end
$var wire 1 N count[17]~60_combout $end
$var wire 1 O count[17]~61 $end
$var wire 1 P count[18]~62_combout $end
$var wire 1 Q count[18]~63 $end
$var wire 1 R count[19]~64_combout $end
$var wire 1 S count[19]~65 $end
$var wire 1 T count[20]~66_combout $end
$var wire 1 U count[20]~67 $end
$var wire 1 V count[21]~68_combout $end
$var wire 1 W count[21]~69 $end
$var wire 1 X count[22]~70_combout $end
$var wire 1 Y count[22]~71 $end
$var wire 1 Z count[23]~72_combout $end
$var wire 1 [ count[23]~73 $end
$var wire 1 \ count[24]~74_combout $end
$var wire 1 ] LessThan0~6_combout $end
$var wire 1 ^ count[24]~75 $end
$var wire 1 _ count[25]~76_combout $end
$var wire 1 ` LessThan0~0_combout $end
$var wire 1 a LessThan0~3_combout $end
$var wire 1 b LessThan0~2_combout $end
$var wire 1 c LessThan0~1_combout $end
$var wire 1 d LessThan0~4_combout $end
$var wire 1 e LessThan0~5_combout $end
$var wire 1 f LessThan0~7_combout $end
$var wire 1 g saida~q $end
$var wire 1 h count [25] $end
$var wire 1 i count [24] $end
$var wire 1 j count [23] $end
$var wire 1 k count [22] $end
$var wire 1 l count [21] $end
$var wire 1 m count [20] $end
$var wire 1 n count [19] $end
$var wire 1 o count [18] $end
$var wire 1 p count [17] $end
$var wire 1 q count [16] $end
$var wire 1 r count [15] $end
$var wire 1 s count [14] $end
$var wire 1 t count [13] $end
$var wire 1 u count [12] $end
$var wire 1 v count [11] $end
$var wire 1 w count [10] $end
$var wire 1 x count [9] $end
$var wire 1 y count [8] $end
$var wire 1 z count [7] $end
$var wire 1 { count [6] $end
$var wire 1 | count [5] $end
$var wire 1 } count [4] $end
$var wire 1 ~ count [3] $end
$var wire 1 !! count [2] $end
$var wire 1 "! count [1] $end
$var wire 1 #! count [0] $end
$upscope $end
$upscope $end
$enddefinitions $end
#0
$dumpvars
0!
0"
0#
1$
x%
1&
1'
1(
0)
0*
0+
1,
0-
0.
1/
00
01
02
13
04
05
06
17
08
09
0:
1;
0<
0=
0>
1?
0@
0A
0B
1C
0D
0E
0F
1G
0H
0I
0J
1K
0L
0M
0N
1O
0P
0Q
0R
1S
0T
0U
0V
1W
0X
0Y
0Z
1[
0\
0]
0^
0_
0`
0a
0b
0c
0d
0e
0f
0g
0#!
0"!
0!!
0~
0}
0|
0{
0z
0y
0x
0w
0v
0u
0t
0s
0r
0q
0p
0o
0n
0m
0l
0k
0j
0i
0h
$end
#20000
1!
1*
1+
1#!
1-
0,
1.
#40000
0!
0*
0+
#60000
1!
1*
1+
1"!
0#!
1`
0/
0-
0.
1,
1d
1/
10
1.
1f
00
#80000
0!
0*
0+
#100000
1!
1*
1+
0"!
1g
1)
0`
1"
0.
0d
0f
#120000
0!
0*
0+
#140000
1!
1*
1+
1#!
0g
0)
1-
0"
0,
1.
#160000
0!
0*
0+
#180000
1!
1*
1+
1"!
0#!
1`
0/
0-
0.
1,
1d
1/
10
1.
1f
00
#200000
0!
0*
0+
#220000
1!
1*
1+
0"!
1g
1)
0`
1"
0.
0d
0f
#240000
0!
0*
0+
#260000
1!
1*
1+
1#!
0g
0)
1-
0"
0,
1.
#280000
0!
0*
0+
#300000
1!
1*
1+
1"!
0#!
1`
0/
0-
0.
1,
1d
1/
10
1.
1f
00
#320000
0!
0*
0+
#340000
1!
1*
1+
0"!
1g
1)
0`
1"
0.
0d
0f
#360000
0!
0*
0+
#380000
1!
1*
1+
1#!
0g
0)
1-
0"
0,
1.
#400000
0!
0*
0+
#420000
1!
1*
1+
1"!
0#!
1`
0/
0-
0.
1,
1d
1/
10
1.
1f
00
#440000
0!
0*
0+
#460000
1!
1*
1+
0"!
1g
1)
0`
1"
0.
0d
0f
#480000
0!
0*
0+
#500000
1!
1*
1+
1#!
0g
0)
1-
0"
0,
1.
#520000
0!
0*
0+
#540000
1!
1*
1+
1"!
0#!
1`
0/
0-
0.
1,
1d
1/
10
1.
1f
00
#560000
0!
0*
0+
#580000
1!
1*
1+
0"!
1g
1)
0`
1"
0.
0d
0f
#600000
0!
0*
0+
#620000
1!
1*
1+
1#!
0g
0)
1-
0"
0,
1.
#640000
0!
0*
0+
#660000
1!
1*
1+
1"!
0#!
1`
0/
0-
0.
1,
1d
1/
10
1.
1f
00
#680000
0!
0*
0+
#700000
1!
1*
1+
0"!
1g
1)
0`
1"
0.
0d
0f
#720000
0!
0*
0+
#740000
1!
1*
1+
1#!
0g
0)
1-
0"
0,
1.
#760000
0!
0*
0+
#780000
1!
1*
1+
1"!
0#!
1`
0/
0-
0.
1,
1d
1/
10
1.
1f
00
#800000
0!
0*
0+
#820000
1!
1*
1+
0"!
1g
1)
0`
1"
0.
0d
0f
#840000
0!
0*
0+
#860000
1!
1*
1+
1#!
0g
0)
1-
0"
0,
1.
#880000
0!
0*
0+
#900000
1!
1*
1+
1"!
0#!
1`
0/
0-
0.
1,
1d
1/
10
1.
1f
00
#920000
0!
0*
0+
#940000
1!
1*
1+
0"!
1g
1)
0`
1"
0.
0d
0f
#960000
0!
0*
0+
#980000
1!
1*
1+
1#!
0g
0)
1-
0"
0,
1.
