simulation/qsim/Processador.msim.vcd
$comment
	File created using the following command:
		vcd file Processador.msim.vcd -direction
$end
$date
	Tue Mar 17 20:37:46 2020
$end
$version
	ModelSim Version 10.3d
$end
$timescale
	1ps
$end

$scope module MUX4_vlg_vec_tst $end
$var reg 16 ! in00 [15:0] $end
$var reg 16 " in01 [15:0] $end
$var reg 16 # in10 [15:0] $end
$var reg 16 $ in11 [15:0] $end
$var reg 2 % select [1:0] $end
$var wire 1 & q [15] $end
$var wire 1 ' q [14] $end
$var wire 1 ( q [13] $end
$var wire 1 ) q [12] $end
$var wire 1 * q [11] $end
$var wire 1 + q [10] $end
$var wire 1 , q [9] $end
$var wire 1 - q [8] $end
$var wire 1 . q [7] $end
$var wire 1 / q [6] $end
$var wire 1 0 q [5] $end
$var wire 1 1 q [4] $end
$var wire 1 2 q [3] $end
$var wire 1 3 q [2] $end
$var wire 1 4 q [1] $end
$var wire 1 5 q [0] $end
$var wire 1 6 sampler $end

$scope module i1 $end
$var wire 1 7 gnd $end
$var wire 1 8 vcc $end
$var wire 1 9 unknown $end
$var tri1 1 : devclrn $end
$var tri1 1 ; devpor $end
$var tri1 1 < devoe $end
$var wire 1 = q[0]~output_o $end
$var wire 1 > q[1]~output_o $end
$var wire 1 ? q[2]~output_o $end
$var wire 1 @ q[3]~output_o $end
$var wire 1 A q[4]~output_o $end
$var wire 1 B q[5]~output_o $end
$var wire 1 C q[6]~output_o $end
$var wire 1 D q[7]~output_o $end
$var wire 1 E q[8]~output_o $end
$var wire 1 F q[9]~output_o $end
$var wire 1 G q[10]~output_o $end
$var wire 1 H q[11]~output_o $end
$var wire 1 I q[12]~output_o $end
$var wire 1 J q[13]~output_o $end
$var wire 1 K q[14]~output_o $end
$var wire 1 L q[15]~output_o $end
$var wire 1 M in11[0]~input_o $end
$var wire 1 N select[0]~input_o $end
$var wire 1 O in00[0]~input_o $end
$var wire 1 P in01[0]~input_o $end
$var wire 1 Q select[1]~input_o $end
$var wire 1 R Mux15~0_combout $end
$var wire 1 S in10[0]~input_o $end
$var wire 1 T Mux15~1_combout $end
$var wire 1 U in00[1]~input_o $end
$var wire 1 V in10[1]~input_o $end
$var wire 1 W Mux14~0_combout $end
$var wire 1 X in01[1]~input_o $end
$var wire 1 Y in11[1]~input_o $end
$var wire 1 Z Mux14~1_combout $end
$var wire 1 [ in11[2]~input_o $end
$var wire 1 \ in10[2]~input_o $end
$var wire 1 ] in00[2]~input_o $end
$var wire 1 ^ in01[2]~input_o $end
$var wire 1 _ Mux13~0_combout $end
$var wire 1 ` Mux13~1_combout $end
$var wire 1 a in11[3]~input_o $end
$var wire 1 b in00[3]~input_o $end
$var wire 1 c in10[3]~input_o $end
$var wire 1 d Mux12~0_combout $end
$var wire 1 e in01[3]~input_o $end
$var wire 1 f Mux12~1_combout $end
$var wire 1 g in01[4]~input_o $end
$var wire 1 h in00[4]~input_o $end
$var wire 1 i Mux11~0_combout $end
$var wire 1 j in11[4]~input_o $end
$var wire 1 k in10[4]~input_o $end
$var wire 1 l Mux11~1_combout $end
$var wire 1 m in01[5]~input_o $end
$var wire 1 n in10[5]~input_o $end
$var wire 1 o in00[5]~input_o $end
$var wire 1 p Mux10~0_combout $end
$var wire 1 q in11[5]~input_o $end
$var wire 1 r Mux10~1_combout $end
$var wire 1 s in00[6]~input_o $end
$var wire 1 t in01[6]~input_o $end
$var wire 1 u Mux9~0_combout $end
$var wire 1 v in10[6]~input_o $end
$var wire 1 w in11[6]~input_o $end
$var wire 1 x Mux9~1_combout $end
$var wire 1 y in11[7]~input_o $end
$var wire 1 z in01[7]~input_o $end
$var wire 1 { in10[7]~input_o $end
$var wire 1 | in00[7]~input_o $end
$var wire 1 } Mux8~0_combout $end
$var wire 1 ~ Mux8~1_combout $end
$var wire 1 !! in10[8]~input_o $end
$var wire 1 "! in00[8]~input_o $end
$var wire 1 #! in01[8]~input_o $end
$var wire 1 $! Mux7~0_combout $end
$var wire 1 %! in11[8]~input_o $end
$var wire 1 &! Mux7~1_combout $end
$var wire 1 '! in01[9]~input_o $end
$var wire 1 (! in10[9]~input_o $end
$var wire 1 )! in00[9]~input_o $end
$var wire 1 *! Mux6~0_combout $end
$var wire 1 +! in11[9]~input_o $end
$var wire 1 ,! Mux6~1_combout $end
$var wire 1 -! in11[10]~input_o $end
$var wire 1 .! in01[10]~input_o $end
$var wire 1 /! in00[10]~input_o $end
$var wire 1 0! Mux5~0_combout $end
$var wire 1 1! in10[10]~input_o $end
$var wire 1 2! Mux5~1_combout $end
$var wire 1 3! in11[11]~input_o $end
$var wire 1 4! in01[11]~input_o $end
$var wire 1 5! in10[11]~input_o $end
$var wire 1 6! in00[11]~input_o $end
$var wire 1 7! Mux4~0_combout $end
$var wire 1 8! Mux4~1_combout $end
$var wire 1 9! in10[12]~input_o $end
$var wire 1 :! in11[12]~input_o $end
$var wire 1 ;! in00[12]~input_o $end
$var wire 1 <! in01[12]~input_o $end
$var wire 1 =! Mux3~0_combout $end
$var wire 1 >! Mux3~1_combout $end
$var wire 1 ?! in00[13]~input_o $end
$var wire 1 @! in10[13]~input_o $end
$var wire 1 A! Mux2~0_combout $end
$var wire 1 B! in01[13]~input_o $end
$var wire 1 C! in11[13]~input_o $end
$var wire 1 D! Mux2~1_combout $end
$var wire 1 E! in11[14]~input_o $end
$var wire 1 F! in10[14]~input_o $end
$var wire 1 G! in01[14]~input_o $end
$var wire 1 H! in00[14]~input_o $end
$var wire 1 I! Mux1~0_combout $end
$var wire 1 J! Mux1~1_combout $end
$var wire 1 K! in01[15]~input_o $end
$var wire 1 L! in11[15]~input_o $end
$var wire 1 M! in10[15]~input_o $end
$var wire 1 N! in00[15]~input_o $end
$var wire 1 O! Mux0~0_combout $end
$var wire 1 P! Mux0~1_combout $end
$upscope $end
$upscope $end
$enddefinitions $end
#0
$dumpvars
b1111111111100010 !
b1000100011 "
b11 #
b1010111 $
b0 %
05
14
03
02
01
10
1/
1.
1-
1,
1+
1*
1)
1(
1'
1&
x6
07
18
x9
1:
1;
1<
0=
1>
0?
0@
0A
1B
1C
1D
1E
1F
1G
1H
1I
1J
1K
1L
1M
0N
0O
1P
0Q
0R
1S
0T
1U
1V
1W
1X
1Y
1Z
1[
0\
0]
0^
0_
0`
0a
0b
0c
0d
0e
0f
0g
0h
0i
1j
0k
0l
1m
0n
1o
1p
0q
1r
1s
0t
1u
0v
1w
1x
0y
0z
0{
1|
1}
1~
0!!
1"!
0#!
1$!
0%!
1&!
1'!
0(!
1)!
1*!
0+!
1,!
0-!
0.!
1/!
10!
01!
12!
03!
04!
05!
16!
17!
18!
09!
0:!
1;!
0<!
1=!
1>!
1?!
0@!
1A!
0B!
0C!
1D!
0E!
0F!
0G!
1H!
1I!
1J!
0K!
0L!
0M!
1N!
1O!
1P!
$end
#20000
b1 %
1N
06
0O!
0I!
0A!
0=!
07!
00!
0*!
0$!
0}
0u
0p
0W
1R
0P!
0D!
08!
0,!
0~
0r
0B
0D
0F
0H
0J
0L
00
0.
0,
0*
0(
0&
0J!
0>!
02!
1,!
0&!
0x
1r
1T
1=
1B
0C
0E
1F
0G
0I
0K
15
10
0/
0-
1,
0+
0)
0'
#40000
b11 %
b10 %
0N
1Q
16
1W
0R
0,!
0r
0Z
0>
0B
0F
04
00
0,
1Z
1>
14
#60000
b11 %
1N
06
1O!
1I!
1A!
1=!
17!
10!
1*!
1$!
1}
1u
1p
1i
1d
1_
1R
1,!
1r
1B
1F
10
1,
0,!
1x
0r
1l
1`
1?
1A
0B
1C
0F
13
11
00
1/
0,
#80000
b1 %
b0 %
0N
0Q
16
0i
0d
0_
0R
1P!
1D!
18!
1,!
1~
1r
1f
1J!
1>!
12!
1&!
1E
1G
1I
1K
1@
1B
1D
1F
1H
1J
1L
1-
1+
1)
1'
12
10
1.
1,
1*
1(
1&
0l
0f
0`
0T
0=
0?
0@
0A
05
03
02
01
#100000
b1 %
1N
06
0O!
0I!
0A!
0=!
07!
00!
0*!
0$!
0}
0u
0p
0W
1R
0P!
0D!
08!
0,!
0~
0r
0B
0D
0F
0H
0J
0L
00
0.
0,
0*
0(
0&
0J!
0>!
02!
1,!
0&!
0x
1r
1T
1=
1B
0C
0E
1F
0G
0I
0K
15
10
0/
0-
1,
0+
0)
0'
#120000
b11 %
b10 %
0N
1Q
16
1W
0R
0,!
0r
0Z
0>
0B
0F
04
00
0,
1Z
1>
14
#140000
b11 %
1N
06
1O!
1I!
1A!
1=!
17!
10!
1*!
1$!
1}
1u
1p
1i
1d
1_
1R
1,!
1r
1B
1F
10
1,
0,!
1x
0r
1l
1`
1?
1A
0B
1C
0F
13
11
00
1/
0,
#160000
b1 %
b0 %
0N
0Q
16
0i
0d
0_
0R
1P!
1D!
18!
1,!
1~
1r
1f
1J!
1>!
12!
1&!
1E
1G
1I
1K
1@
1B
1D
1F
1H
1J
1L
1-
1+
1)
1'
12
10
1.
1,
1*
1(
1&
0l
0f
0`
0T
0=
0?
0@
0A
05
03
02
01
#180000
b1 %
1N
06
0O!
0I!
0A!
0=!
07!
00!
0*!
0$!
0}
0u
0p
0W
1R
0P!
0D!
08!
0,!
0~
0r
0B
0D
0F
0H
0J
0L
00
0.
0,
0*
0(
0&
0J!
0>!
02!
1,!
0&!
0x
1r
1T
1=
1B
0C
0E
1F
0G
0I
0K
15
10
0/
0-
1,
0+
0)
0'
#200000
b11 %
b10 %
0N
1Q
16
1W
0R
0,!
0r
0Z
0>
0B
0F
04
00
0,
1Z
1>
14
#220000
b11 %
1N
06
1O!
1I!
1A!
1=!
17!
10!
1*!
1$!
1}
1u
1p
1i
1d
1_
1R
1,!
1r
1B
1F
10
1,
0,!
1x
0r
1l
1`
1?
1A
0B
1C
0F
13
11
00
1/
0,
#240000
b1 %
b0 %
0N
0Q
16
0i
0d
0_
0R
1P!
1D!
18!
1,!
1~
1r
1f
1J!
1>!
12!
1&!
1E
1G
1I
1K
1@
1B
1D
1F
1H
1J
1L
1-
1+
1)
1'
12
10
1.
1,
1*
1(
1&
0l
0f
0`
0T
0=
0?
0@
0A
05
03
02
01
#260000
b1 %
1N
06
0O!
0I!
0A!
0=!
07!
00!
0*!
0$!
0}
0u
0p
0W
1R
0P!
0D!
08!
0,!
0~
0r
0B
0D
0F
0H
0J
0L
00
0.
0,
0*
0(
0&
0J!
0>!
02!
1,!
0&!
0x
1r
1T
1=
1B
0C
0E
1F
0G
0I
0K
15
10
0/
0-
1,
0+
0)
0'
#280000
b11 %
b10 %
0N
1Q
16
1W
0R
0,!
0r
0Z
0>
0B
0F
04
00
0,
1Z
1>
14
#300000
b11 %
1N
06
1O!
1I!
1A!
1=!
17!
10!
1*!
1$!
1}
1u
1p
1i
1d
1_
1R
1,!
1r
1B
1F
10
1,
0,!
1x
0r
1l
1`
1?
1A
0B
1C
0F
13
11
00
1/
0,
#320000
b1 %
b0 %
0N
0Q
16
0i
0d
0_
0R
1P!
1D!
18!
1,!
1~
1r
1f
1J!
1>!
12!
1&!
1E
1G
1I
1K
1@
1B
1D
1F
1H
1J
1L
1-
1+
1)
1'
12
10
1.
1,
1*
1(
1&
0l
0f
0`
0T
0=
0?
0@
0A
05
03
02
01
#340000
b1 %
1N
06
0O!
0I!
0A!
0=!
07!
00!
0*!
0$!
0}
0u
0p
0W
1R
0P!
0D!
08!
0,!
0~
0r
0B
0D
0F
0H
0J
0L
00
0.
0,
0*
0(
0&
0J!
0>!
02!
1,!
0&!
0x
1r
1T
1=
1B
0C
0E
1F
0G
0I
0K
15
10
0/
0-
1,
0+
0)
0'
#360000
b11 %
b10 %
0N
1Q
16
1W
0R
0,!
0r
0Z
0>
0B
0F
04
00
0,
1Z
1>
14
#380000
b11 %
1N
06
1O!
1I!
1A!
1=!
17!
10!
1*!
1$!
1}
1u
1p
1i
1d
1_
1R
1,!
1r
1B
1F
10
1,
0,!
1x
0r
1l
1`
1?
1A
0B
1C
0F
13
11
00
1/
0,
#400000
b1 %
b0 %
0N
0Q
16
0i
0d
0_
0R
1P!
1D!
18!
1,!
1~
1r
1f
1J!
1>!
12!
1&!
1E
1G
1I
1K
1@
1B
1D
1F
1H
1J
1L
1-
1+
1)
1'
12
10
1.
1,
1*
1(
1&
0l
0f
0`
0T
0=
0?
0@
0A
05
03
02
01
#420000
b1 %
1N
06
0O!
0I!
0A!
0=!
07!
00!
0*!
0$!
0}
0u
0p
0W
1R
0P!
0D!
08!
0,!
0~
0r
0B
0D
0F
0H
0J
0L
00
0.
0,
0*
0(
0&
0J!
0>!
02!
1,!
0&!
0x
1r
1T
1=
1B
0C
0E
1F
0G
0I
0K
15
10
0/
0-
1,
0+
0)
0'
#440000
b11 %
b10 %
0N
1Q
16
1W
0R
0,!
0r
0Z
0>
0B
0F
04
00
0,
1Z
1>
14
#460000
b11 %
1N
06
1O!
1I!
1A!
1=!
17!
10!
1*!
1$!
1}
1u
1p
1i
1d
1_
1R
1,!
1r
1B
1F
10
1,
0,!
1x
0r
1l
1`
1?
1A
0B
1C
0F
13
11
00
1/
0,
#480000
b1 %
b0 %
0N
0Q
16
0i
0d
0_
0R
1P!
1D!
18!
1,!
1~
1r
1f
1J!
1>!
12!
1&!
1E
1G
1I
1K
1@
1B
1D
1F
1H
1J
1L
1-
1+
1)
1'
12
10
1.
1,
1*
1(
1&
0l
0f
0`
0T
0=
0?
0@
0A
05
03
02
01
#500000
b1 %
1N
06
0O!
0I!
0A!
0=!
07!
00!
0*!
0$!
0}
0u
0p
0W
1R
0P!
0D!
08!
0,!
0~
0r
0B
0D
0F
0H
0J
0L
00
0.
0,
0*
0(
0&
0J!
0>!
02!
1,!
0&!
0x
1r
1T
1=
1B
0C
0E
1F
0G
0I
0K
15
10
0/
0-
1,
0+
0)
0'
#520000
b11 %
b10 %
0N
1Q
16
1W
0R
0,!
0r
0Z
0>
0B
0F
04
00
0,
1Z
1>
14
#540000
b11 %
1N
06
1O!
1I!
1A!
1=!
17!
10!
1*!
1$!
1}
1u
1p
1i
1d
1_
1R
1,!
1r
1B
1F
10
1,
0,!
1x
0r
1l
1`
1?
1A
0B
1C
0F
13
11
00
1/
0,
#560000
b1 %
b0 %
0N
0Q
16
0i
0d
0_
0R
1P!
1D!
18!
1,!
1~
1r
1f
1J!
1>!
12!
1&!
1E
1G
1I
1K
1@
1B
1D
1F
1H
1J
1L
1-
1+
1)
1'
12
10
1.
1,
1*
1(
1&
0l
0f
0`
0T
0=
0?
0@
0A
05
03
02
01
#580000
b1 %
1N
06
0O!
0I!
0A!
0=!
07!
00!
0*!
0$!
0}
0u
0p
0W
1R
0P!
0D!
08!
0,!
0~
0r
0B
0D
0F
0H
0J
0L
00
0.
0,
0*
0(
0&
0J!
0>!
02!
1,!
0&!
0x
1r
1T
1=
1B
0C
0E
1F
0G
0I
0K
15
10
0/
0-
1,
0+
0)
0'
#600000
b11 %
b10 %
0N
1Q
16
1W
0R
0,!
0r
0Z
0>
0B
0F
04
00
0,
1Z
1>
14
#620000
b11 %
1N
06
1O!
1I!
1A!
1=!
17!
10!
1*!
1$!
1}
1u
1p
1i
1d
1_
1R
1,!
1r
1B
1F
10
1,
0,!
1x
0r
1l
1`
1?
1A
0B
1C
0F
13
11
00
1/
0,
#640000
b1 %
b0 %
0N
0Q
16
0i
0d
0_
0R
1P!
1D!
18!
1,!
1~
1r
1f
1J!
1>!
12!
1&!
1E
1G
1I
1K
1@
1B
1D
1F
1H
1J
1L
1-
1+
1)
1'
12
10
1.
1,
1*
1(
1&
0l
0f
0`
0T
0=
0?
0@
0A
05
03
02
01
#660000
b1 %
1N
06
0O!
0I!
0A!
0=!
07!
00!
0*!
0$!
0}
0u
0p
0W
1R
0P!
0D!
08!
0,!
0~
0r
0B
0D
0F
0H
0J
0L
00
0.
0,
0*
0(
0&
0J!
0>!
02!
1,!
0&!
0x
1r
1T
1=
1B
0C
0E
1F
0G
0I
0K
15
10
0/
0-
1,
0+
0)
0'
#680000
b11 %
b10 %
0N
1Q
16
1W
0R
0,!
0r
0Z
0>
0B
0F
04
00
0,
1Z
1>
14
#700000
b11 %
1N
06
1O!
1I!
1A!
1=!
17!
10!
1*!
1$!
1}
1u
1p
1i
1d
1_
1R
1,!
1r
1B
1F
10
1,
0,!
1x
0r
1l
1`
1?
1A
0B
1C
0F
13
11
00
1/
0,
#720000
b1 %
b0 %
0N
0Q
16
0i
0d
0_
0R
1P!
1D!
18!
1,!
1~
1r
1f
1J!
1>!
12!
1&!
1E
1G
1I
1K
1@
1B
1D
1F
1H
1J
1L
1-
1+
1)
1'
12
10
1.
1,
1*
1(
1&
0l
0f
0`
0T
0=
0?
0@
0A
05
03
02
01
#740000
b1 %
1N
06
0O!
0I!
0A!
0=!
07!
00!
0*!
0$!
0}
0u
0p
0W
1R
0P!
0D!
08!
0,!
0~
0r
0B
0D
0F
0H
0J
0L
00
0.
0,
0*
0(
0&
0J!
0>!
02!
1,!
0&!
0x
1r
1T
1=
1B
0C
0E
1F
0G
0I
0K
15
10
0/
0-
1,
0+
0)
0'
#760000
b11 %
b10 %
0N
1Q
16
1W
0R
0,!
0r
0Z
0>
0B
0F
04
00
0,
1Z
1>
14
#780000
b11 %
1N
06
1O!
1I!
1A!
1=!
17!
10!
1*!
1$!
1}
1u
1p
1i
1d
1_
1R
1,!
1r
1B
1F
10
1,
0,!
1x
0r
1l
1`
1?
1A
0B
1C
0F
13
11
00
1/
0,
#800000
b1 %
b0 %
0N
0Q
16
0i
0d
0_
0R
1P!
1D!
18!
1,!
1~
1r
1f
1J!
1>!
12!
1&!
1E
1G
1I
1K
1@
1B
1D
1F
1H
1J
1L
1-
1+
1)
1'
12
10
1.
1,
1*
1(
1&
0l
0f
0`
0T
0=
0?
0@
0A
05
03
02
01
#820000
b1 %
1N
06
0O!
0I!
0A!
0=!
07!
00!
0*!
0$!
0}
0u
0p
0W
1R
0P!
0D!
08!
0,!
0~
0r
0B
0D
0F
0H
0J
0L
00
0.
0,
0*
0(
0&
0J!
0>!
02!
1,!
0&!
0x
1r
1T
1=
1B
0C
0E
1F
0G
0I
0K
15
10
0/
0-
1,
0+
0)
0'
#840000
b11 %
b10 %
0N
1Q
16
1W
0R
0,!
0r
0Z
0>
0B
0F
04
00
0,
1Z
1>
14
#860000
b11 %
1N
06
1O!
1I!
1A!
1=!
17!
10!
1*!
1$!
1}
1u
1p
1i
1d
1_
1R
1,!
1r
1B
1F
10
1,
0,!
1x
0r
1l
1`
1?
1A
0B
1C
0F
13
11
00
1/
0,
#880000
b1 %
b0 %
0N
0Q
16
0i
0d
0_
0R
1P!
1D!
18!
1,!
1~
1r
1f
1J!
1>!
12!
1&!
1E
1G
1I
1K
1@
1B
1D
1F
1H
1J
1L
1-
1+
1)
1'
12
10
1.
1,
1*
1(
1&
0l
0f
0`
0T
0=
0?
0@
0A
05
03
02
01
#900000
b1 %
1N
06
0O!
0I!
0A!
0=!
07!
00!
0*!
0$!
0}
0u
0p
0W
1R
0P!
0D!
08!
0,!
0~
0r
0B
0D
0F
0H
0J
0L
00
0.
0,
0*
0(
0&
0J!
0>!
02!
1,!
0&!
0x
1r
1T
1=
1B
0C
0E
1F
0G
0I
0K
15
10
0/
0-
1,
0+
0)
0'
#920000
b11 %
b10 %
0N
1Q
16
1W
0R
0,!
0r
0Z
0>
0B
0F
04
00
0,
1Z
1>
14
#940000
b11 %
1N
06
1O!
1I!
1A!
1=!
17!
10!
1*!
1$!
1}
1u
1p
1i
1d
1_
1R
1,!
1r
1B
1F
10
1,
0,!
1x
0r
1l
1`
1?
1A
0B
1C
0F
13
11
00
1/
0,
#960000
b1 %
b0 %
0N
0Q
16
0i
0d
0_
0R
1P!
1D!
18!
1,!
1~
1r
1f
1J!
1>!
12!
1&!
1E
1G
1I
1K
1@
1B
1D
1F
1H
1J
1L
1-
1+
1)
1'
12
10
1.
1,
1*
1(
1&
0l
0f
0`
0T
0=
0?
0@
0A
05
03
02
01
#980000
b1 %
1N
06
0O!
0I!
0A!
0=!
07!
00!
0*!
0$!
0}
0u
0p
0W
1R
0P!
0D!
08!
0,!
0~
0r
0B
0D
0F
0H
0J
0L
00
0.
0,
0*
0(
0&
0J!
0>!
02!
1,!
0&!
0x
1r
1T
1=
1B
0C
0E
1F
0G
0I
0K
15
10
0/
0-
1,
0+
0)
0'
